<svg xmlns="http://www.w3.org/2000/svg" width="32" height="32" viewBox="0 0 32 32">
  <path class="stroke" style="stroke-width:2.2;" d="M 2.4095981,9.4631701 15.969494,2.8013397 30.190848,9.4631701 V 29.732142 H 18.048363 l -0.08065,-6.998291 -4.029835,0.0057 0.04724,6.992559 H 2.4095981 Z" />
  <rect class="fill" width="6.3020711" height="2.3623512" x="5.0455165" y="12.109002" />
  <rect class="fill" width="6.0196047" height="2.3623512" x="13.052485" y="12.109002" />
  <rect class="fill" width="6.209466" height="2.3623512" x="21.032221" y="12.109002" />
  <rect class="fill" width="6.3020716" height="2.3623512" x="4.9491262" y="16.880951" />
  <rect class="fill" width="6.0196047" height="2.3623512" x="12.960415" y="16.880951" />
  <rect class="fill" width="6.209466" height="2.3623512" x="20.937244" y="16.880951" />
  <rect class="fill" width="6.3020716" height="2.3623512" x="5.0776472" y="21.652901" />
  <rect class="fill" width="6.209466" height="2.3623512" x="21.063877" y="21.652901" />
</svg>
