<svg xmlns="http://www.w3.org/2000/svg" width="32" height="32" viewBox="0 0 32 32">
  <ellipse class="fill" id="path4639" cx="16.120119" cy="10.50534" rx="2.4050581" ry="2.4572577" />
  <path class="stroke" style="stroke-width:2.2;" d="m 13.248065,8.1184427 a 6.8009572,6.9137397 0 0 1 -0.472281,-8.24322818 6.8009572,6.9137397 0 0 1 7.632654,-2.82412782 6.8009572,6.9137397 0 0 1 4.85042,6.62329" transform="matrix(0.9372902,0.34854998,-0.33558067,0.94201147,0,0)" />
  <path class="stroke" style="stroke-width:1.8;" d="m 10.394345,11.542038 c 1.858328,4.582827 3.716711,9.165787 5.575149,13.748884" transform="matrix(1.2025291,0,0,1.2286289,-3.2001472,-2.9166017)" />
  <path class="stroke" style="stroke-width:1.8;" d="m 21.828125,11.589286 c -1.936992,4.551144 -3.87412,9.102607 -5.811384,13.654389" transform="matrix(1.2024562,-0.01352755,0.01324018,1.2285544,-3.5576649,-2.6575472)" />
</svg>
